{
  "project_info": {
    "project_number": "143973228413",
    "firebase_url": "https://cricreport-450b9.firebaseio.com",
    "project_id": "cricreport-450b9",
    "storage_bucket": "cricreport-450b9.appspot.com"
  },
  "client": [
    {
      "client_info": {
        "mobilesdk_app_id": "1:143973228413:android:35111d6f6f1832bfe03614",
        "android_client_info": {
          "package_name": "com.example.admincricreport"
        }
      },
      "oauth_client": [
        {
          "client_id": "143973228413-lt836l4qe53n78mvgvqfepahr18t0pup.apps.googleusercontent.com",
          "client_type": 3
        }
      ],
      "api_key": [
        {
          "current_key": "AIzaSyCIfXmtkhldXttWIyKUFlHBCZAnMoHyICg"
        }
      ],
      "services": {
        "appinvite_service": {
          "other_platform_oauth_client": [
            {
              "client_id": "143973228413-lt836l4qe53n78mvgvqfepahr18t0pup.apps.googleusercontent.com",
              "client_type": 3
            }
          ]
        }
      }
    },
    {
      "client_info": {
        "mobilesdk_app_id": "1:143973228413:android:8767cc9310ae612de03614",
        "android_client_info": {
          "package_name": "com.khabar.cricreport"
        }
      },
      "oauth_client": [
        {
          "client_id": "143973228413-lt836l4qe53n78mvgvqfepahr18t0pup.apps.googleusercontent.com",
          "client_type": 3
        }
      ],
      "api_key": [
        {
          "current_key": "AIzaSyCIfXmtkhldXttWIyKUFlHBCZAnMoHyICg"
        }
      ],
      "services": {
        "appinvite_service": {
          "other_platform_oauth_client": [
            {
              "client_id": "143973228413-lt836l4qe53n78mvgvqfepahr18t0pup.apps.googleusercontent.com",
              "client_type": 3
            }
          ]
        }
      }
    }
  ],
  "configuration_version": "1"
}